%TF.GenerationSoftware,KiCad,Pcbnew,6.0.4+dfsg-1*%
%TF.CreationDate,2022-03-31T18:00:55+02:00*%
%TF.ProjectId,LED_STEPUP,4c45445f-5354-4455-9055-502e6b696361,rev?*%
%TF.SameCoordinates,Original*%
%TF.FileFunction,Copper,L1,Top*%
%TF.FilePolarity,Positive*%
%FSLAX46Y46*%
G04 Gerber Fmt 4.6, Leading zero omitted, Abs format (unit mm)*
G04 Created by KiCad (PCBNEW 6.0.4+dfsg-1) date 2022-03-31 18:00:55*
%MOMM*%
%LPD*%
G01*
G04 APERTURE LIST*
G04 Aperture macros list*
%AMRoundRect*
0 Rectangle with rounded corners*
0 $1 Rounding radius*
0 $2 $3 $4 $5 $6 $7 $8 $9 X,Y pos of 4 corners*
0 Add a 4 corners polygon primitive as box body*
4,1,4,$2,$3,$4,$5,$6,$7,$8,$9,$2,$3,0*
0 Add four circle primitives for the rounded corners*
1,1,$1+$1,$2,$3*
1,1,$1+$1,$4,$5*
1,1,$1+$1,$6,$7*
1,1,$1+$1,$8,$9*
0 Add four rect primitives between the rounded corners*
20,1,$1+$1,$2,$3,$4,$5,0*
20,1,$1+$1,$4,$5,$6,$7,0*
20,1,$1+$1,$6,$7,$8,$9,0*
20,1,$1+$1,$8,$9,$2,$3,0*%
G04 Aperture macros list end*
%TA.AperFunction,ComponentPad*%
%ADD10R,1.700000X1.700000*%
%TD*%
%TA.AperFunction,ComponentPad*%
%ADD11O,1.700000X1.700000*%
%TD*%
%TA.AperFunction,SMDPad,CuDef*%
%ADD12RoundRect,0.250000X-0.350000X-0.450000X0.350000X-0.450000X0.350000X0.450000X-0.350000X0.450000X0*%
%TD*%
%TA.AperFunction,ComponentPad*%
%ADD13R,1.500000X1.050000*%
%TD*%
%TA.AperFunction,ComponentPad*%
%ADD14O,1.500000X1.050000*%
%TD*%
%TA.AperFunction,ComponentPad*%
%ADD15C,2.000000*%
%TD*%
%TA.AperFunction,ComponentPad*%
%ADD16RoundRect,0.250000X0.750000X-0.600000X0.750000X0.600000X-0.750000X0.600000X-0.750000X-0.600000X0*%
%TD*%
%TA.AperFunction,ComponentPad*%
%ADD17O,2.000000X1.700000*%
%TD*%
%TA.AperFunction,ComponentPad*%
%ADD18R,1.600000X1.600000*%
%TD*%
%TA.AperFunction,ComponentPad*%
%ADD19O,1.600000X1.600000*%
%TD*%
%TA.AperFunction,ComponentPad*%
%ADD20C,1.600000*%
%TD*%
%TA.AperFunction,ComponentPad*%
%ADD21C,1.200000*%
%TD*%
%TA.AperFunction,ViaPad*%
%ADD22C,0.800000*%
%TD*%
%TA.AperFunction,Conductor*%
%ADD23C,0.750000*%
%TD*%
%TA.AperFunction,Conductor*%
%ADD24C,0.500000*%
%TD*%
G04 APERTURE END LIST*
D10*
%TO.P,ON/off,1,A*%
%TO.N,VCC*%
X115570000Y-66040000D03*
D11*
%TO.P,ON/off,2,B*%
%TO.N,Net-(J1-Pad1)*%
X113030000Y-66040000D03*
%TO.P,ON/off,3,C*%
%TO.N,unconnected-(SW1-Pad3)*%
X110490000Y-66040000D03*
%TD*%
D10*
%TO.P,ADJ,1,1*%
%TO.N,Net-(R101-Pad2)*%
X133350000Y-88900000D03*
D11*
%TO.P,ADJ,2,2*%
%TO.N,Net-(RV101-Pad2)*%
X130810000Y-88900000D03*
%TO.P,ADJ,3,3*%
%TO.N,Net-(R102-Pad1)*%
X128270000Y-88900000D03*
%TD*%
D12*
%TO.P,R11,1*%
%TO.N,Net-(R11-Pad1)*%
X124460000Y-76200000D03*
%TO.P,R11,2*%
%TO.N,Net-(Q11-Pad2)*%
X126460000Y-76200000D03*
%TD*%
D13*
%TO.P,Q11,1,E*%
%TO.N,GND*%
X125770000Y-69850000D03*
D14*
%TO.P,Q11,2,B*%
%TO.N,Net-(Q11-Pad2)*%
X125770000Y-71120000D03*
%TO.P,Q11,3,C*%
%TO.N,Net-(D11-Pad2)*%
X125770000Y-72390000D03*
%TD*%
D15*
%TO.P,L11,1,1*%
%TO.N,Net-(D11-Pad2)*%
X119380000Y-73660000D03*
%TO.P,L11,2,2*%
%TO.N,+5V*%
X119380000Y-69660000D03*
%TD*%
D16*
%TO.P,Panel,1,Pin_1*%
%TO.N,Net-(J11-Pad1)*%
X135890000Y-77470000D03*
D17*
%TO.P,Panel,2,Pin_2*%
%TO.N,Net-(C12-Pad1)*%
X135890000Y-74970000D03*
%TD*%
D11*
%TO.P,PWR +-,2,Pin_2*%
%TO.N,GND*%
X113030000Y-83845000D03*
D10*
%TO.P,PWR +-,1,Pin_1*%
%TO.N,Net-(J1-Pad1)*%
X110490000Y-83845000D03*
%TD*%
D18*
%TO.P,D11,1,K*%
%TO.N,Net-(C12-Pad1)*%
X130810000Y-77470000D03*
D19*
%TO.P,D11,2,A*%
%TO.N,Net-(D11-Pad2)*%
X130810000Y-69850000D03*
%TD*%
D20*
%TO.P,C101,1*%
%TO.N,+5V*%
X128350000Y-66040000D03*
%TO.P,C101,2*%
%TO.N,GND*%
X133350000Y-66040000D03*
%TD*%
%TO.P,C21,2*%
%TO.N,GND*%
X124460000Y-83820000D03*
%TO.P,C21,1*%
%TO.N,Net-(C21-Pad1)*%
X119460000Y-83820000D03*
%TD*%
%TO.P,C12,1*%
%TO.N,Net-(C12-Pad1)*%
X137160000Y-69850000D03*
%TO.P,C12,2*%
%TO.N,GND*%
X137160000Y-64850000D03*
%TD*%
%TO.P,C11,1*%
%TO.N,+5V*%
X119420000Y-66040000D03*
%TO.P,C11,2*%
%TO.N,GND*%
X124420000Y-66040000D03*
%TD*%
D21*
%TO.P,C2,2*%
%TO.N,GND*%
X117880000Y-88900000D03*
%TO.P,C2,1*%
%TO.N,+5V*%
X119380000Y-88900000D03*
%TD*%
%TO.P,C1,2*%
%TO.N,GND*%
X112800000Y-88900000D03*
%TO.P,C1,1*%
%TO.N,VCC*%
X114300000Y-88900000D03*
%TD*%
D22*
%TO.N,+5V*%
X121920000Y-86360000D03*
X119380000Y-76200000D03*
%TO.N,VCC*%
X114300000Y-81280000D03*
X115570000Y-68580000D03*
%TO.N,Net-(R11-Pad1)*%
X121920000Y-78740000D03*
%TO.N,Net-(Q11-Pad2)*%
X128270000Y-71120000D03*
%TD*%
D23*
%TO.N,+5V*%
X121920000Y-83820000D02*
X121920000Y-86360000D01*
X120834511Y-77654511D02*
X120834511Y-82734511D01*
X119380000Y-76200000D02*
X120834511Y-77654511D01*
X120834511Y-82734511D02*
X121920000Y-83820000D01*
%TO.N,VCC*%
X115570000Y-80010000D02*
X114300000Y-81280000D01*
X115570000Y-68580000D02*
X115570000Y-80010000D01*
D24*
%TO.N,Net-(R11-Pad1)*%
X121920000Y-77470000D02*
X121920000Y-78740000D01*
X124460000Y-76200000D02*
X123190000Y-76200000D01*
X123190000Y-76200000D02*
X121920000Y-77470000D01*
%TO.N,Net-(Q11-Pad2)*%
X128270000Y-74930000D02*
X128270000Y-71120000D01*
X127000000Y-76200000D02*
X128270000Y-74930000D01*
X126460000Y-76200000D02*
X127000000Y-76200000D01*
%TD*%
M02*
